[{"page":1,"pages":2,"per_page":50,"total":62,"sourceid":"2","sourcename":"World Development Indicators","lastupdated":"2022-12-22"},[{"indicator":{"id":"SI.POV.DDAY","value":"Poverty headcount ratio at $2.15 a day (2017 PPP) (% of population)"},"country":{"id":"BR","value":"Brazil"},"countryiso3code":"BRA","date":"2021","value":null,"unit":"","obs_status":"","decimal":1},{"indicator":{"id":"SI.POV.DDAY","value":"Poverty headcount ratio at $2.15 a day (2017 PPP) (% of population)"},"country":{"id":"BR","value":"Brazil"},"countryiso3code":"BRA","date":"2020","value":1.9,"unit":"","obs_status":"","decimal":1},{"indicator":{"id":"SI.POV.DDAY","value":"Poverty headcount ratio at $2.15 a day (2017 PPP) (% of population)"},"country":{"id":"BR","value":"Brazil"},"countryiso3code":"BRA","date":"2019","value":5.4,"unit":"","obs_status":"","decimal":1},{"indicator":{"id":"SI.POV.DDAY","value":"Poverty headcount ratio at $2.15 a day (2017 PPP) (% of population)"},"country":{"id":"BR","value":"Brazil"},"countryiso3code":"BRA","date":"2018","value":5.3,"unit":"","obs_status":"","decimal":1},{"indicator":{"id":"SI.POV.DDAY","value":"Poverty headcount ratio at $2.15 a day (2017 PPP) (% of population)"},"country":{"id":"BR","value":"Brazil"},"countryiso3code":"BRA","date":"2017","value":5.3,"unit":"","obs_status":"","decimal":1},{"indicator":{"id":"SI.POV.DDAY","value":"Poverty headcount ratio at $2.15 a day (2017 PPP) (% of population)"},"country":{"id":"BR","value":"Brazil"},"countryiso3code":"BRA","date":"2016","value":4.7,"unit":"","obs_status":"","decimal":1},{"indicator":{"id":"SI.POV.DDAY","value":"Poverty headcount ratio at $2.15 a day (2017 PPP) (% of population)"},"country":{"id":"BR","value":"Brazil"},"countryiso3code":"BRA","date":"2015","value":3.9,"unit":"","obs_status":"","decimal":1},{"indicator":{"id":"SI.POV.DDAY","value":"Poverty headcount ratio at $2.15 a day (2017 PPP) (% of population)"},"country":{"id":"BR","value":"Brazil"},"countryiso3code":"BRA","date":"2014","value":3.3,"unit":"","obs_status":"","decimal":1},{"indicator":{"id":"SI.POV.DDAY","value":"Poverty headcount ratio at $2.15 a day (2017 PPP) (% of population)"},"country":{"id":"BR","value":"Brazil"},"countryiso3code":"BRA","date":"2013","value":3.7,"unit":"","obs_status":"","decimal":1},{"indicator":{"id":"SI.POV.DDAY","value":"Poverty headcount ratio at $2.15 a day (2017 PPP) (% of population)"},"country":{"id":"BR","value":"Brazil"},"countryiso3code":"BRA","date":"2012","value":4.5,"unit":"","obs_status":"","decimal":1},{"indicator":{"id":"SI.POV.DDAY","value":"Poverty headcount ratio at $2.15 a day (2017 PPP) (% of population)"},"country":{"id":"BR","value":"Brazil"},"countryiso3code":"BRA","date":"2011","value":5.3,"unit":"","obs_status":"","decimal":1},{"indicator":{"id":"SI.POV.DDAY","value":"Poverty headcount ratio at $2.15 a day (2017 PPP) (% of population)"},"country":{"id":"BR","value":"Brazil"},"countryiso3code":"BRA","date":"2010","value":null,"unit":"","obs_status":"","decimal":1},{"indicator":{"id":"SI.POV.DDAY","value":"Poverty headcount ratio at $2.15 a day (2017 PPP) (% of population)"},"country":{"id":"BR","value":"Brazil"},"countryiso3code":"BRA","date":"2009","value":6.1,"unit":"","obs_status":"","decimal":1},{"indicator":{"id":"SI.POV.DDAY","value":"Poverty headcount ratio at $2.15 a day (2017 PPP) (% of population)"},"country":{"id":"BR","value":"Brazil"},"countryiso3code":"BRA","date":"2008","value":6.5,"unit":"","obs_status":"","decimal":1},{"indicator":{"id":"SI.POV.DDAY","value":"Poverty headcount ratio at $2.15 a day (2017 PPP) (% of population)"},"country":{"id":"BR","value":"Brazil"},"countryiso3code":"BRA","date":"2007","value":7.9,"unit":"","obs_status":"","decimal":1},{"indicator":{"id":"SI.POV.DDAY","value":"Poverty headcount ratio at $2.15 a day (2017 PPP) (% of population)"},"country":{"id":"BR","value":"Brazil"},"countryiso3code":"BRA","date":"2006","value":8.3,"unit":"","obs_status":"","decimal":1},{"indicator":{"id":"SI.POV.DDAY","value":"Poverty headcount ratio at $2.15 a day (2017 PPP) (% of population)"},"country":{"id":"BR","value":"Brazil"},"countryiso3code":"BRA","date":"2005","value":10,"unit":"","obs_status":"","decimal":1},{"indicator":{"id":"SI.POV.DDAY","value":"Poverty headcount ratio at $2.15 a day (2017 PPP) (% of population)"},"country":{"id":"BR","value":"Brazil"},"countryiso3code":"BRA","date":"2004","value":11.1,"unit":"","obs_status":"","decimal":1},{"indicator":{"id":"SI.POV.DDAY","value":"Poverty headcount ratio at $2.15 a day (2017 PPP) (% of population)"},"country":{"id":"BR","value":"Brazil"},"countryiso3code":"BRA","date":"2003","value":12.6,"unit":"","obs_status":"","decimal":1},{"indicator":{"id":"SI.POV.DDAY","value":"Poverty headcount ratio at $2.15 a day (2017 PPP) (% of population)"},"country":{"id":"BR","value":"Brazil"},"countryiso3code":"BRA","date":"2002","value":11.7,"unit":"","obs_status":"","decimal":1},{"indicator":{"id":"SI.POV.DDAY","value":"Poverty headcount ratio at $2.15 a day (2017 PPP) (% of population)"},"country":{"id":"BR","value":"Brazil"},"countryiso3code":"BRA","date":"2001","value":13,"unit":"","obs_status":"","decimal":1},{"indicator":{"id":"SI.POV.DDAY","value":"Poverty headcount ratio at $2.15 a day (2017 PPP) (% of population)"},"country":{"id":"BR","value":"Brazil"},"countryiso3code":"BRA","date":"2000","value":null,"unit":"","obs_status":"","decimal":1},{"indicator":{"id":"SI.POV.DDAY","value":"Poverty headcount ratio at $2.15 a day (2017 PPP) (% of population)"},"country":{"id":"BR","value":"Brazil"},"countryiso3code":"BRA","date":"1999","value":15,"unit":"","obs_status":"","decimal":1},{"indicator":{"id":"SI.POV.DDAY","value":"Poverty headcount ratio at $2.15 a day (2017 PPP) (% of population)"},"country":{"id":"BR","value":"Brazil"},"countryiso3code":"BRA","date":"1998","value":14.3,"unit":"","obs_status":"","decimal":1},{"indicator":{"id":"SI.POV.DDAY","value":"Poverty headcount ratio at $2.15 a day (2017 PPP) (% of population)"},"country":{"id":"BR","value":"Brazil"},"countryiso3code":"BRA","date":"1997","value":16,"unit":"","obs_status":"","decimal":1},{"indicator":{"id":"SI.POV.DDAY","value":"Poverty headcount ratio at $2.15 a day (2017 PPP) (% of population)"},"country":{"id":"BR","value":"Brazil"},"countryiso3code":"BRA","date":"1996","value":16,"unit":"","obs_status":"","decimal":1},{"indicator":{"id":"SI.POV.DDAY","value":"Poverty headcount ratio at $2.15 a day (2017 PPP) (% of population)"},"country":{"id":"BR","value":"Brazil"},"countryiso3code":"BRA","date":"1995","value":14.7,"unit":"","obs_status":"","decimal":1},{"indicator":{"id":"SI.POV.DDAY","value":"Poverty headcount ratio at $2.15 a day (2017 PPP) (% of population)"},"country":{"id":"BR","value":"Brazil"},"countryiso3code":"BRA","date":"1994","value":null,"unit":"","obs_status":"","decimal":1},{"indicator":{"id":"SI.POV.DDAY","value":"Poverty headcount ratio at $2.15 a day (2017 PPP) (% of population)"},"country":{"id":"BR","value":"Brazil"},"countryiso3code":"BRA","date":"1993","value":22.1,"unit":"","obs_status":"","decimal":1},{"indicator":{"id":"SI.POV.DDAY","value":"Poverty headcount ratio at $2.15 a day (2017 PPP) (% of population)"},"country":{"id":"BR","value":"Brazil"},"countryiso3code":"BRA","date":"1992","value":23.3,"unit":"","obs_status":"","decimal":1},{"indicator":{"id":"SI.POV.DDAY","value":"Poverty headcount ratio at $2.15 a day (2017 PPP) (% of population)"},"country":{"id":"BR","value":"Brazil"},"countryiso3code":"BRA","date":"1991","value":null,"unit":"","obs_status":"","decimal":1},{"indicator":{"id":"SI.POV.DDAY","value":"Poverty headcount ratio at $2.15 a day (2017 PPP) (% of population)"},"country":{"id":"BR","value":"Brazil"},"countryiso3code":"BRA","date":"1990","value":24,"unit":"","obs_status":"","decimal":1},{"indicator":{"id":"SI.POV.DDAY","value":"Poverty headcount ratio at $2.15 a day (2017 PPP) (% of population)"},"country":{"id":"BR","value":"Brazil"},"countryiso3code":"BRA","date":"1989","value":20.4,"unit":"","obs_status":"","decimal":1},{"indicator":{"id":"SI.POV.DDAY","value":"Poverty headcount ratio at $2.15 a day (2017 PPP) (% of population)"},"country":{"id":"BR","value":"Brazil"},"countryiso3code":"BRA","date":"1988","value":22.4,"unit":"","obs_status":"","decimal":1},{"indicator":{"id":"SI.POV.DDAY","value":"Poverty headcount ratio at $2.15 a day (2017 PPP) (% of population)"},"country":{"id":"BR","value":"Brazil"},"countryiso3code":"BRA","date":"1987","value":19.9,"unit":"","obs_status":"","decimal":1},{"indicator":{"id":"SI.POV.DDAY","value":"Poverty headcount ratio at $2.15 a day (2017 PPP) (% of population)"},"country":{"id":"BR","value":"Brazil"},"countryiso3code":"BRA","date":"1986","value":12.3,"unit":"","obs_status":"","decimal":1},{"indicator":{"id":"SI.POV.DDAY","value":"Poverty headcount ratio at $2.15 a day (2017 PPP) (% of population)"},"country":{"id":"BR","value":"Brazil"},"countryiso3code":"BRA","date":"1985","value":25.8,"unit":"","obs_status":"","decimal":1},{"indicator":{"id":"SI.POV.DDAY","value":"Poverty headcount ratio at $2.15 a day (2017 PPP) (% of population)"},"country":{"id":"BR","value":"Brazil"},"countryiso3code":"BRA","date":"1984","value":29.9,"unit":"","obs_status":"","decimal":1},{"indicator":{"id":"SI.POV.DDAY","value":"Poverty headcount ratio at $2.15 a day (2017 PPP) (% of population)"},"country":{"id":"BR","value":"Brazil"},"countryiso3code":"BRA","date":"1983","value":30.6,"unit":"","obs_status":"","decimal":1},{"indicator":{"id":"SI.POV.DDAY","value":"Poverty headcount ratio at $2.15 a day (2017 PPP) (% of population)"},"country":{"id":"BR","value":"Brazil"},"countryiso3code":"BRA","date":"1982","value":24.4,"unit":"","obs_status":"","decimal":1},{"indicator":{"id":"SI.POV.DDAY","value":"Poverty headcount ratio at $2.15 a day (2017 PPP) (% of population)"},"country":{"id":"BR","value":"Brazil"},"countryiso3code":"BRA","date":"1981","value":23.9,"unit":"","obs_status":"","decimal":1},{"indicator":{"id":"SI.POV.DDAY","value":"Poverty headcount ratio at $2.15 a day (2017 PPP) (% of population)"},"country":{"id":"BR","value":"Brazil"},"countryiso3code":"BRA","date":"1980","value":null,"unit":"","obs_status":"","decimal":1},{"indicator":{"id":"SI.POV.DDAY","value":"Poverty headcount ratio at $2.15 a day (2017 PPP) (% of population)"},"country":{"id":"BR","value":"Brazil"},"countryiso3code":"BRA","date":"1979","value":null,"unit":"","obs_status":"","decimal":1},{"indicator":{"id":"SI.POV.DDAY","value":"Poverty headcount ratio at $2.15 a day (2017 PPP) (% of population)"},"country":{"id":"BR","value":"Brazil"},"countryiso3code":"BRA","date":"1978","value":null,"unit":"","obs_status":"","decimal":1},{"indicator":{"id":"SI.POV.DDAY","value":"Poverty headcount ratio at $2.15 a day (2017 PPP) (% of population)"},"country":{"id":"BR","value":"Brazil"},"countryiso3code":"BRA","date":"1977","value":null,"unit":"","obs_status":"","decimal":1},{"indicator":{"id":"SI.POV.DDAY","value":"Poverty headcount ratio at $2.15 a day (2017 PPP) (% of population)"},"country":{"id":"BR","value":"Brazil"},"countryiso3code":"BRA","date":"1976","value":null,"unit":"","obs_status":"","decimal":1},{"indicator":{"id":"SI.POV.DDAY","value":"Poverty headcount ratio at $2.15 a day (2017 PPP) (% of population)"},"country":{"id":"BR","value":"Brazil"},"countryiso3code":"BRA","date":"1975","value":null,"unit":"","obs_status":"","decimal":1},{"indicator":{"id":"SI.POV.DDAY","value":"Poverty headcount ratio at $2.15 a day (2017 PPP) (% of population)"},"country":{"id":"BR","value":"Brazil"},"countryiso3code":"BRA","date":"1974","value":null,"unit":"","obs_status":"","decimal":1},{"indicator":{"id":"SI.POV.DDAY","value":"Poverty headcount ratio at $2.15 a day (2017 PPP) (% of population)"},"country":{"id":"BR","value":"Brazil"},"countryiso3code":"BRA","date":"1973","value":null,"unit":"","obs_status":"","decimal":1},{"indicator":{"id":"SI.POV.DDAY","value":"Poverty headcount ratio at $2.15 a day (2017 PPP) (% of population)"},"country":{"id":"BR","value":"Brazil"},"countryiso3code":"BRA","date":"1972","value":null,"unit":"","obs_status":"","decimal":1}]]